SOLUTION;MISSION_INDEX;ROBOT_RED_X;ROBOT_RED_Y;ROBOT_BLUE_X;ROBOT_BLUE_Y;ROBOT_YELLOW_X;ROBOT_YELLOW_Y;ROBOT_GREEN_X;ROBOT_GREEN_Y;TARGET_COLOR;TARGET_X;TARGET_Y;MS_TIME;INTERRUPTED;MAX_MS_TIME;DIFFICULTY;SOLVER_NAME
9;0;15;3;9;1;12;0;14;9;1;14;13;966;0;60000;4;A-Star
9;1;12;15;7;6;10;11;0;6;1;14;13;270;0;60000;4;A-Star
7;2;5;8;12;1;11;2;3;7;4;14;9;615;0;60000;4;A-Star
6;3;5;5;15;4;0;15;6;9;2;13;9;12;0;60000;4;A-Star
3;4;11;0;2;14;11;10;1;1;1;9;13;1;0;60000;4;A-Star
5;5;5;9;7;2;13;13;11;10;3;8;10;9;0;60000;4;A-Star
9;6;9;8;9;2;7;14;2;11;3;12;9;977;0;60000;4;A-Star
8;7;1;9;6;15;12;4;1;3;2;10;13;99;0;60000;4;A-Star
8;8;10;1;1;13;1;2;4;10;2;9;12;199;0;60000;4;A-Star
6;9;8;14;3;7;8;9;12;7;1;14;11;27;0;60000;4;A-Star
9;10;2;11;10;4;9;1;3;1;3;9;14;453;0;60000;4;A-Star
6;11;10;9;10;5;11;14;8;1;1;10;13;28;0;60000;4;A-Star
6;12;7;2;12;15;2;8;11;14;3;9;11;22;0;60000;4;A-Star
8;13;0;5;2;11;15;9;13;1;3;11;9;196;0;60000;4;A-Star
4;14;2;11;11;5;9;10;13;10;1;12;13;2;0;60000;4;A-Star
7;15;14;11;14;2;7;10;12;12;1;14;9;383;0;60000;4;A-Star
8;16;5;5;15;9;6;1;9;14;2;11;14;94;0;60000;4;A-Star
9;17;1;13;7;15;6;15;13;10;0;9;13;244;0;60000;4;A-Star
8;18;0;4;5;6;4;1;5;4;0;12;9;399;0;60000;4;A-Star
7;19;14;9;3;15;5;14;6;15;3;11;10;26;0;60000;4;A-Star
6;20;0;7;4;0;5;6;15;11;2;14;13;12;0;60000;4;A-Star
10;21;13;4;14;7;12;10;3;14;3;13;11;855;0;60000;4;A-Star
8;22;12;1;2;9;4;10;2;11;2;13;11;119;0;60000;4;A-Star
3;23;7;11;10;5;3;14;4;9;4;11;10;4;0;60000;4;A-Star
7;24;9;7;5;3;6;13;9;4;3;11;10;51;0;60000;4;A-Star
11;25;0;2;5;9;15;4;1;4;4;13;11;5593;0;60000;4;A-Star
7;26;11;5;3;6;9;10;15;13;2;11;9;257;0;60000;4;A-Star
10;27;15;13;8;6;5;4;12;5;2;12;9;807;0;60000;4;A-Star
8;28;0;12;8;1;5;12;7;2;0;12;9;166;0;60000;4;A-Star
9;29;4;4;11;2;0;11;0;9;0;11;10;206;0;60000;4;A-Star
4;30;14;7;11;7;13;7;8;10;0;13;11;8;0;60000;4;A-Star
3;31;3;2;8;0;13;5;8;12;3;12;9;1;0;60000;4;A-Star
9;32;5;4;3;1;5;6;6;1;2;11;10;680;0;60000;4;A-Star
4;33;13;15;9;10;9;4;9;7;3;10;10;8;0;60000;4;A-Star
10;34;15;0;0;2;12;8;10;4;4;14;14;1104;0;60000;4;A-Star
4;35;11;13;6;9;0;0;11;3;1;9;12;2;0;60000;4;A-Star
9;36;12;0;10;11;7;4;1;7;0;13;11;648;0;60000;4;A-Star
5;37;14;0;13;14;10;3;0;14;3;9;11;3;0;60000;4;A-Star
7;38;8;1;14;8;6;12;7;14;3;9;12;86;0;60000;4;A-Star
5;39;3;14;2;15;5;7;12;14;0;8;10;8;0;60000;4;A-Star
11;40;3;1;11;14;3;15;15;3;3;10;14;2248;0;60000;4;A-Star
5;41;13;7;13;2;9;13;6;4;2;9;12;20;0;60000;4;A-Star
5;42;10;13;7;11;3;10;4;12;1;11;14;5;0;60000;4;A-Star
5;43;13;6;5;9;5;5;7;9;1;8;10;5;0;60000;4;A-Star
7;44;11;0;10;5;1;3;2;10;2;11;10;45;0;60000;4;A-Star
6;45;7;5;5;11;2;4;3;10;0;10;12;22;0;60000;4;A-Star
10;46;9;5;9;7;4;3;8;3;4;14;14;14711;0;60000;4;A-Star
3;47;12;8;7;15;13;8;11;0;4;9;13;2;0;60000;4;A-Star
7;48;14;14;2;14;11;8;10;2;1;8;10;95;0;60000;4;A-Star
8;49;6;14;12;1;2;8;5;4;1;13;11;617;0;60000;4;A-Star
6;50;9;1;9;12;11;10;8;2;1;14;9;16;0;60000;4;A-Star
11;51;2;3;5;15;1;0;9;6;1;14;13;878;0;60000;4;A-Star
4;52;0;5;0;14;14;9;5;5;4;13;11;12;0;60000;4;A-Star
7;53;8;15;14;9;11;3;2;1;4;8;10;614;0;60000;4;A-Star
7;54;10;4;1;14;4;4;3;7;0;14;9;97;0;60000;4;A-Star
4;55;3;12;8;1;5;12;11;1;1;12;14;2;0;60000;4;A-Star
6;56;15;0;0;8;13;11;4;11;0;11;10;8;0;60000;4;A-Star
11;57;5;15;8;5;7;6;8;9;1;13;9;4993;0;60000;4;A-Star
10;58;4;13;15;11;8;10;0;11;3;13;9;434;0;60000;4;A-Star
5;59;1;6;6;6;5;2;11;8;0;12;9;7;0;60000;4;A-Star
9;60;12;11;2;8;6;14;5;13;0;13;9;591;0;60000;4;A-Star
5;61;10;8;2;4;3;2;1;9;1;14;13;37;0;60000;4;A-Star
4;62;9;0;6;0;6;13;2;9;2;14;12;1;0;60000;4;A-Star
4;63;2;13;1;7;14;7;8;14;2;9;11;4;0;60000;4;A-Star
10;64;0;7;0;14;9;7;10;8;2;14;14;428;0;60000;4;A-Star
6;65;12;8;13;3;8;6;5;15;2;11;9;40;0;60000;4;A-Star
4;66;15;5;5;3;11;4;11;0;1;13;9;2;0;60000;4;A-Star
14;67;3;1;7;1;0;15;11;8;1;9;12;21080;0;60000;4;A-Star
9;68;8;5;5;14;4;13;7;14;0;10;10;1064;0;60000;4;A-Star
7;69;1;15;0;12;11;8;1;8;0;12;14;24;0;60000;4;A-Star
8;70;15;5;8;9;3;0;10;6;0;10;13;55;0;60000;4;A-Star
4;71;15;11;10;10;6;0;3;5;2;12;13;1;0;60000;4;A-Star
7;72;14;4;4;6;7;13;3;8;3;11;9;336;0;60000;4;A-Star
5;73;3;3;13;6;8;11;11;5;1;10;13;5;0;60000;4;A-Star
6;74;10;5;1;12;1;2;4;14;4;14;9;169;0;60000;4;A-Star
9;75;3;11;11;14;12;13;8;10;1;9;12;1038;0;60000;4;A-Star
7;76;10;5;6;14;2;9;10;3;1;10;12;62;0;60000;4;A-Star
3;77;14;12;8;5;0;13;8;12;3;12;9;2;0;60000;4;A-Star
4;78;2;5;2;15;7;0;12;7;4;10;10;8;0;60000;4;A-Star
4;79;3;5;3;3;2;1;13;9;4;9;11;6;0;60000;4;A-Star
6;80;1;12;9;12;3;5;15;6;4;11;10;222;0;60000;4;A-Star
10;81;0;7;15;5;12;1;1;3;3;14;14;902;0;60000;4;A-Star
11;82;9;2;14;15;4;14;10;0;1;10;14;1776;0;60000;4;A-Star
10;83;14;8;4;1;1;12;4;5;2;10;14;2350;0;60000;4;A-Star
8;84;15;0;14;10;5;12;6;9;2;14;14;132;0;60000;4;A-Star
7;85;4;15;0;10;14;7;11;13;3;14;9;167;0;60000;4;A-Star
9;86;4;5;1;1;0;1;3;10;0;14;14;572;0;60000;4;A-Star
7;87;1;14;11;13;7;4;5;0;0;9;12;40;0;60000;4;A-Star
8;88;8;2;3;10;3;7;9;14;2;9;12;222;0;60000;4;A-Star
8;89;5;9;2;0;6;6;5;8;2;14;13;172;0;60000;4;A-Star
4;90;13;0;5;10;12;15;3;4;2;14;13;3;0;60000;4;A-Star
6;91;11;8;2;0;1;11;3;14;4;14;13;114;0;60000;4;A-Star
7;92;10;2;4;1;5;12;13;4;1;11;10;43;0;60000;4;A-Star
10;93;7;15;5;8;9;8;3;4;3;14;14;1468;0;60000;4;A-Star
9;94;2;13;8;9;1;12;1;5;0;12;9;367;0;60000;4;A-Star
9;95;0;11;12;3;7;5;3;6;0;10;13;663;0;60000;4;A-Star
6;96;6;5;14;13;0;12;8;0;1;10;10;15;0;60000;4;A-Star
4;97;2;10;10;3;14;4;11;3;4;13;11;10;0;60000;4;A-Star
4;98;14;12;10;9;11;5;3;10;0;9;10;3;0;60000;4;A-Star
6;99;4;9;15;7;0;4;0;0;3;12;9;49;0;60000;4;A-Star
9;0;15;3;9;1;12;0;14;9;1;14;13;11;0;60000;3;A-Star
9;1;12;15;7;6;10;11;0;6;1;14;13;8;0;60000;3;A-Star
7;2;5;8;12;1;11;2;3;7;4;14;9;2;0;60000;3;A-Star
6;3;5;5;15;4;0;15;6;9;2;13;9;20;0;60000;3;A-Star
3;4;11;0;2;14;11;10;1;1;1;9;13;2;0;60000;3;A-Star
5;5;5;9;7;2;13;13;11;10;3;8;10;5;0;60000;3;A-Star
11;6;9;8;9;2;7;14;2;11;3;12;9;121;0;60000;3;A-Star
8;7;1;9;6;15;12;4;1;3;2;10;13;10;0;60000;3;A-Star
8;8;10;1;1;13;1;2;4;10;2;9;12;4;0;60000;3;A-Star
6;9;8;14;3;7;8;9;12;7;1;14;11;3;0;60000;3;A-Star
14;10;2;11;10;4;9;1;3;1;3;9;14;62;0;60000;3;A-Star
7;11;10;9;10;5;11;14;8;1;1;10;13;8;0;60000;3;A-Star
6;12;7;2;12;15;2;8;11;14;3;9;11;6;0;60000;3;A-Star
10;13;0;5;2;11;15;9;13;1;3;11;9;3;0;60000;3;A-Star
5;14;2;11;11;5;9;10;13;10;1;12;13;1;0;60000;3;A-Star
7;15;14;11;14;2;7;10;12;12;1;14;9;4;0;60000;3;A-Star
8;16;5;5;15;9;6;1;9;14;2;11;14;74;0;60000;3;A-Star
11;17;1;13;7;15;6;15;13;10;0;9;13;70;0;60000;3;A-Star
10;18;0;4;5;6;4;1;5;4;0;12;9;148;0;60000;3;A-Star
10;19;14;9;3;15;5;14;6;15;3;11;10;4;0;60000;3;A-Star
6;20;0;7;4;0;5;6;15;11;2;14;13;1;0;60000;3;A-Star
10;21;13;4;14;7;12;10;3;14;3;13;11;7;0;60000;3;A-Star
10;22;12;1;2;9;4;10;2;11;2;13;11;6;0;60000;3;A-Star
4;23;7;11;10;5;3;14;4;9;4;11;10;1;0;60000;3;A-Star
7;24;9;7;5;3;6;13;9;4;3;11;10;4;0;60000;3;A-Star
12;25;0;2;5;9;15;4;1;4;4;13;11;75;0;60000;3;A-Star
9;26;11;5;3;6;9;10;15;13;2;11;9;49;0;60000;3;A-Star
12;27;15;13;8;6;5;4;12;5;2;12;9;46;0;60000;3;A-Star
10;28;0;12;8;1;5;12;7;2;0;12;9;12;0;60000;3;A-Star
10;29;4;4;11;2;0;11;0;9;0;11;10;7;0;60000;3;A-Star
4;30;14;7;11;7;13;7;8;10;0;13;11;2;0;60000;3;A-Star
3;31;3;2;8;0;13;5;8;12;3;12;9;1;0;60000;3;A-Star
11;32;5;4;3;1;5;6;6;1;2;11;10;14;0;60000;3;A-Star
6;33;13;15;9;10;9;4;9;7;3;10;10;2;0;60000;3;A-Star
10;34;15;0;0;2;12;8;10;4;4;14;14;10;0;60000;3;A-Star
9;35;11;13;6;9;0;0;11;3;1;9;12;1;0;60000;3;A-Star
9;36;12;0;10;11;7;4;1;7;0;13;11;61;0;60000;3;A-Star
5;37;14;0;13;14;10;3;0;14;3;9;11;2;0;60000;3;A-Star
8;38;8;1;14;8;6;12;7;14;3;9;12;31;0;60000;3;A-Star
5;39;3;14;2;15;5;7;12;14;0;8;10;3;0;60000;3;A-Star
16;40;3;1;11;14;3;15;15;3;3;10;14;164;0;60000;3;A-Star
8;41;13;7;13;2;9;13;6;4;2;9;12;9;0;60000;3;A-Star
5;42;10;13;7;11;3;10;4;12;1;11;14;1;0;60000;3;A-Star
7;43;13;6;5;9;5;5;7;9;1;8;10;8;0;60000;3;A-Star
7;44;11;0;10;5;1;3;2;10;2;11;10;5;0;60000;3;A-Star
9;45;7;5;5;11;2;4;3;10;0;10;12;19;0;60000;3;A-Star
10;46;9;5;9;7;4;3;8;3;4;14;14;64;0;60000;3;A-Star
3;47;12;8;7;15;13;8;11;0;4;9;13;0;0;60000;3;A-Star
9;48;14;14;2;14;11;8;10;2;1;8;10;47;0;60000;3;A-Star
12;49;6;14;12;1;2;8;5;4;1;13;11;18;0;60000;3;A-Star
6;50;9;1;9;12;11;10;8;2;1;14;9;1;0;60000;3;A-Star
15;51;2;3;5;15;1;0;9;6;1;14;13;34;0;60000;3;A-Star
4;52;0;5;0;14;14;9;5;5;4;13;11;0;0;60000;3;A-Star
7;53;8;15;14;9;11;3;2;1;4;8;10;19;0;60000;3;A-Star
7;54;10;4;1;14;4;4;3;7;0;14;9;417;0;60000;3;A-Star
5;55;3;12;8;1;5;12;11;1;1;12;14;3;0;60000;3;A-Star
8;56;15;0;0;8;13;11;4;11;0;11;10;3;0;60000;3;A-Star
11;57;5;15;8;5;7;6;8;9;1;13;9;40;0;60000;3;A-Star
10;58;4;13;15;11;8;10;0;11;3;13;9;43;0;60000;3;A-Star
5;59;1;6;6;6;5;2;11;8;0;12;9;26;0;60000;3;A-Star
9;60;12;11;2;8;6;14;5;13;0;13;9;46;0;60000;3;A-Star
6;61;10;8;2;4;3;2;1;9;1;14;13;3;0;60000;3;A-Star
13;62;9;0;6;0;6;13;2;9;2;14;12;22;0;60000;3;A-Star
10;63;2;13;1;7;14;7;8;14;2;9;11;5;0;60000;3;A-Star
12;64;0;7;0;14;9;7;10;8;2;14;14;23;0;60000;3;A-Star
6;65;12;8;13;3;8;6;5;15;2;11;9;1;0;60000;3;A-Star
4;66;15;5;5;3;11;4;11;0;1;13;9;0;0;60000;3;A-Star
14;67;3;1;7;1;0;15;11;8;1;9;12;1299;0;60000;3;A-Star
11;68;8;5;5;14;4;13;7;14;0;10;10;266;0;60000;3;A-Star
7;69;1;15;0;12;11;8;1;8;0;12;14;14;0;60000;3;A-Star
8;70;15;5;8;9;3;0;10;6;0;10;13;2;0;60000;3;A-Star
4;71;15;11;10;10;6;0;3;5;2;12;13;0;0;60000;3;A-Star
8;72;14;4;4;6;7;13;3;8;3;11;9;32;0;60000;3;A-Star
5;73;3;3;13;6;8;11;11;5;1;10;13;2;0;60000;3;A-Star
7;74;10;5;1;12;1;2;4;14;4;14;9;7;0;60000;3;A-Star
9;75;3;11;11;14;12;13;8;10;1;9;12;51;0;60000;3;A-Star
8;76;10;5;6;14;2;9;10;3;1;10;12;98;0;60000;3;A-Star
3;77;14;12;8;5;0;13;8;12;3;12;9;1;0;60000;3;A-Star
5;78;2;5;2;15;7;0;12;7;4;10;10;1;0;60000;3;A-Star
4;79;3;5;3;3;2;1;13;9;4;9;11;0;0;60000;3;A-Star
6;80;1;12;9;12;3;5;15;6;4;11;10;4;0;60000;3;A-Star
15;81;0;7;15;5;12;1;1;3;3;14;14;8;0;60000;3;A-Star
17;82;9;2;14;15;4;14;10;0;1;10;14;326;0;60000;3;A-Star
14;83;14;8;4;1;1;12;4;5;2;10;14;466;0;60000;3;A-Star
9;84;15;0;14;10;5;12;6;9;2;14;14;11;0;60000;3;A-Star
7;85;4;15;0;10;14;7;11;13;3;14;9;2;0;60000;3;A-Star
13;86;4;5;1;1;0;1;3;10;0;14;14;66;0;60000;3;A-Star
8;87;1;14;11;13;7;4;5;0;0;9;12;234;0;60000;3;A-Star
9;88;8;2;3;10;3;7;9;14;2;9;12;19;0;60000;3;A-Star
8;89;5;9;2;0;6;6;5;8;2;14;13;93;0;60000;3;A-Star
6;90;13;0;5;10;12;15;3;4;2;14;13;2;0;60000;3;A-Star
6;91;11;8;2;0;1;11;3;14;4;14;13;1;0;60000;3;A-Star
8;92;10;2;4;1;5;12;13;4;1;11;10;57;0;60000;3;A-Star
17;93;7;15;5;8;9;8;3;4;3;14;14;97;0;60000;3;A-Star
9;94;2;13;8;9;1;12;1;5;0;12;9;8;0;60000;3;A-Star
9;95;0;11;12;3;7;5;3;6;0;10;13;327;0;60000;3;A-Star
7;96;6;5;14;13;0;12;8;0;1;10;10;2;0;60000;3;A-Star
5;97;2;10;10;3;14;4;11;3;4;13;11;1;0;60000;3;A-Star
4;98;14;12;10;9;11;5;3;10;0;9;10;1;0;60000;3;A-Star
8;99;4;9;15;7;0;4;0;0;3;12;9;1;0;60000;3;A-Star
10;0;15;3;9;1;12;0;14;9;1;14;13;1;0;60000;2;A-Star
9;1;12;15;7;6;10;11;0;6;1;14;13;4;0;60000;2;A-Star
7;2;5;8;12;1;11;2;3;7;4;14;9;1;0;60000;2;A-Star
6;3;5;5;15;4;0;15;6;9;2;13;9;16;0;60000;2;A-Star
3;4;11;0;2;14;11;10;1;1;1;9;13;0;0;60000;2;A-Star
5;5;5;9;7;2;13;13;11;10;3;8;10;53;0;60000;2;A-Star
12;6;9;8;9;2;7;14;2;11;3;12;9;108;0;60000;2;A-Star
8;7;1;9;6;15;12;4;1;3;2;10;13;5;0;60000;2;A-Star
8;8;10;1;1;13;1;2;4;10;2;9;12;9;0;60000;2;A-Star
6;9;8;14;3;7;8;9;12;7;1;14;11;2;0;60000;2;A-Star
12;10;2;11;10;4;9;1;3;1;3;9;14;93;0;60000;2;A-Star
7;11;10;9;10;5;11;14;8;1;1;10;13;3;0;60000;2;A-Star
6;12;7;2;12;15;2;8;11;14;3;9;11;2;0;60000;2;A-Star
11;13;0;5;2;11;15;9;13;1;3;11;9;7;0;60000;2;A-Star
5;14;2;11;11;5;9;10;13;10;1;12;13;0;0;60000;2;A-Star
8;15;14;11;14;2;7;10;12;12;1;14;9;7;0;60000;2;A-Star
8;16;5;5;15;9;6;1;9;14;2;11;14;32;0;60000;2;A-Star
11;17;1;13;7;15;6;15;13;10;0;9;13;320;0;60000;2;A-Star
11;18;0;4;5;6;4;1;5;4;0;12;9;140;0;60000;2;A-Star
12;19;14;9;3;15;5;14;6;15;3;11;10;7;0;60000;2;A-Star
6;20;0;7;4;0;5;6;15;11;2;14;13;0;0;60000;2;A-Star
10;21;13;4;14;7;12;10;3;14;3;13;11;47;0;60000;2;A-Star
13;22;12;1;2;9;4;10;2;11;2;13;11;43;0;60000;2;A-Star
4;23;7;11;10;5;3;14;4;9;4;11;10;1;0;60000;2;A-Star
7;24;9;7;5;3;6;13;9;4;3;11;10;18;0;60000;2;A-Star
13;25;0;2;5;9;15;4;1;4;4;13;11;35;0;60000;2;A-Star
9;26;11;5;3;6;9;10;15;13;2;11;9;18;0;60000;2;A-Star
12;27;15;13;8;6;5;4;12;5;2;12;9;38;0;60000;2;A-Star
10;28;0;12;8;1;5;12;7;2;0;12;9;5;0;60000;2;A-Star
10;29;4;4;11;2;0;11;0;9;0;11;10;63;0;60000;2;A-Star
4;30;14;7;11;7;13;7;8;10;0;13;11;1;0;60000;2;A-Star
3;31;3;2;8;0;13;5;8;12;3;12;9;1;0;60000;2;A-Star
11;32;5;4;3;1;5;6;6;1;2;11;10;37;0;60000;2;A-Star
6;33;13;15;9;10;9;4;9;7;3;10;10;1;0;60000;2;A-Star
10;34;15;0;0;2;12;8;10;4;4;14;14;6;0;60000;2;A-Star
9;35;11;13;6;9;0;0;11;3;1;9;12;1;0;60000;2;A-Star
10;36;12;0;10;11;7;4;1;7;0;13;11;248;0;60000;2;A-Star
5;37;14;0;13;14;10;3;0;14;3;9;11;2;0;60000;2;A-Star
8;38;8;1;14;8;6;12;7;14;3;9;12;38;0;60000;2;A-Star
5;39;3;14;2;15;5;7;12;14;0;8;10;11;0;60000;2;A-Star
14;40;3;1;11;14;3;15;15;3;3;10;14;285;0;60000;2;A-Star
13;41;13;7;13;2;9;13;6;4;2;9;12;7;0;60000;2;A-Star
6;42;10;13;7;11;3;10;4;12;1;11;14;4;0;60000;2;A-Star
7;43;13;6;5;9;5;5;7;9;1;8;10;6;0;60000;2;A-Star
7;44;11;0;10;5;1;3;2;10;2;11;10;2;0;60000;2;A-Star
9;45;7;5;5;11;2;4;3;10;0;10;12;15;0;60000;2;A-Star
10;46;9;5;9;7;4;3;8;3;4;14;14;17;0;60000;2;A-Star
3;47;12;8;7;15;13;8;11;0;4;9;13;0;0;60000;2;A-Star
9;48;14;14;2;14;11;8;10;2;1;8;10;41;0;60000;2;A-Star
12;49;6;14;12;1;2;8;5;4;1;13;11;6;0;60000;2;A-Star
6;50;9;1;9;12;11;10;8;2;1;14;9;2;0;60000;2;A-Star
15;51;2;3;5;15;1;0;9;6;1;14;13;44;0;60000;2;A-Star
4;52;0;5;0;14;14;9;5;5;4;13;11;0;0;60000;2;A-Star
9;53;8;15;14;9;11;3;2;1;4;8;10;20;0;60000;2;A-Star
16;54;10;4;1;14;4;4;3;7;0;14;9;2290;0;60000;2;A-Star
5;55;3;12;8;1;5;12;11;1;1;12;14;1;0;60000;2;A-Star
8;56;15;0;0;8;13;11;4;11;0;11;10;3;0;60000;2;A-Star
11;57;5;15;8;5;7;6;8;9;1;13;9;17;0;60000;2;A-Star
14;58;4;13;15;11;8;10;0;11;3;13;9;40;0;60000;2;A-Star
15;59;1;6;6;6;5;2;11;8;0;12;9;252;0;60000;2;A-Star
9;60;12;11;2;8;6;14;5;13;0;13;9;37;0;60000;2;A-Star
6;61;10;8;2;4;3;2;1;9;1;14;13;4;0;60000;2;A-Star
16;62;9;0;6;0;6;13;2;9;2;14;12;36;0;60000;2;A-Star
10;63;2;13;1;7;14;7;8;14;2;9;11;9;0;60000;2;A-Star
11;64;0;7;0;14;9;7;10;8;2;14;14;13;0;60000;2;A-Star
6;65;12;8;13;3;8;6;5;15;2;11;9;1;0;60000;2;A-Star
4;66;15;5;5;3;11;4;11;0;1;13;9;0;0;60000;2;A-Star
14;67;3;1;7;1;0;15;11;8;1;9;12;3809;0;60000;2;A-Star
11;68;8;5;5;14;4;13;7;14;0;10;10;229;0;60000;2;A-Star
9;69;1;15;0;12;11;8;1;8;0;12;14;87;0;60000;2;A-Star
8;70;15;5;8;9;3;0;10;6;0;10;13;0;0;60000;2;A-Star
4;71;15;11;10;10;6;0;3;5;2;12;13;0;0;60000;2;A-Star
8;72;14;4;4;6;7;13;3;8;3;11;9;135;0;60000;2;A-Star
5;73;3;3;13;6;8;11;11;5;1;10;13;1;0;60000;2;A-Star
6;74;10;5;1;12;1;2;4;14;4;14;9;5;0;60000;2;A-Star
9;75;3;11;11;14;12;13;8;10;1;9;12;30;0;60000;2;A-Star
8;76;10;5;6;14;2;9;10;3;1;10;12;2;0;60000;2;A-Star
3;77;14;12;8;5;0;13;8;12;3;12;9;0;0;60000;2;A-Star
5;78;2;5;2;15;7;0;12;7;4;10;10;1;0;60000;2;A-Star
4;79;3;5;3;3;2;1;13;9;4;9;11;0;0;60000;2;A-Star
7;80;1;12;9;12;3;5;15;6;4;11;10;3;0;60000;2;A-Star
15;81;0;7;15;5;12;1;1;3;3;14;14;10;0;60000;2;A-Star
17;82;9;2;14;15;4;14;10;0;1;10;14;335;0;60000;2;A-Star
14;83;14;8;4;1;1;12;4;5;2;10;14;448;0;60000;2;A-Star
9;84;15;0;14;10;5;12;6;9;2;14;14;8;0;60000;2;A-Star
8;85;4;15;0;10;14;7;11;13;3;14;9;3;0;60000;2;A-Star
16;86;4;5;1;1;0;1;3;10;0;14;14;32;0;60000;2;A-Star
14;87;1;14;11;13;7;4;5;0;0;9;12;1551;0;60000;2;A-Star
9;88;8;2;3;10;3;7;9;14;2;9;12;19;0;60000;2;A-Star
8;89;5;9;2;0;6;6;5;8;2;14;13;18;0;60000;2;A-Star
6;90;13;0;5;10;12;15;3;4;2;14;13;3;0;60000;2;A-Star
6;91;11;8;2;0;1;11;3;14;4;14;13;1;0;60000;2;A-Star
8;92;10;2;4;1;5;12;13;4;1;11;10;33;0;60000;2;A-Star
13;93;7;15;5;8;9;8;3;4;3;14;14;19;0;60000;2;A-Star
10;94;2;13;8;9;1;12;1;5;0;12;9;11;0;60000;2;A-Star
12;95;0;11;12;3;7;5;3;6;0;10;13;100;0;60000;2;A-Star
7;96;6;5;14;13;0;12;8;0;1;10;10;3;0;60000;2;A-Star
5;97;2;10;10;3;14;4;11;3;4;13;11;0;0;60000;2;A-Star
4;98;14;12;10;9;11;5;3;10;0;9;10;1;0;60000;2;A-Star
8;99;4;9;15;7;0;4;0;0;3;12;9;0;0;60000;2;A-Star
15;0;15;3;9;1;12;0;14;9;1;14;13;3996;0;60000;1;A-Star
17;1;12;15;7;6;10;11;0;6;1;14;13;1459;0;60000;1;A-Star
7;2;5;8;12;1;11;2;3;7;4;14;9;215;0;60000;1;A-Star
10;3;5;5;15;4;0;15;6;9;2;13;9;57;0;60000;1;A-Star
6;4;11;0;2;14;11;10;1;1;1;9;13;2;0;60000;1;A-Star
9;5;5;9;7;2;13;13;11;10;3;8;10;75;0;60000;1;A-Star
16;6;9;8;9;2;7;14;2;11;3;12;9;4205;0;60000;1;A-Star
16;7;1;9;6;15;12;4;1;3;2;10;13;1190;0;60000;1;A-Star
15;8;10;1;1;13;1;2;4;10;2;9;12;2503;0;60000;1;A-Star
11;9;8;14;3;7;8;9;12;7;1;14;11;110;0;60000;1;A-Star
16;10;2;11;10;4;9;1;3;1;3;9;14;2516;0;60000;1;A-Star
9;11;10;9;10;5;11;14;8;1;1;10;13;42;0;60000;1;A-Star
13;12;7;2;12;15;2;8;11;14;3;9;11;291;0;60000;1;A-Star
14;13;0;5;2;11;15;9;13;1;3;11;9;157;0;60000;1;A-Star
6;14;2;11;11;5;9;10;13;10;1;12;13;4;0;60000;1;A-Star
11;15;14;11;14;2;7;10;12;12;1;14;9;390;0;60000;1;A-Star
13;16;5;5;15;9;6;1;9;14;2;11;14;374;0;60000;1;A-Star
12;17;1;13;7;15;6;15;13;10;0;9;13;214;0;60000;1;A-Star
13;18;0;4;5;6;4;1;5;4;0;12;9;460;0;60000;1;A-Star
14;19;14;9;3;15;5;14;6;15;3;11;10;462;0;60000;1;A-Star
8;20;0;7;4;0;5;6;15;11;2;14;13;16;0;60000;1;A-Star
18;21;13;4;14;7;12;10;3;14;3;13;11;4605;0;60000;1;A-Star
14;22;12;1;2;9;4;10;2;11;2;13;11;2518;0;60000;1;A-Star
5;23;7;11;10;5;3;14;4;9;4;11;10;20;0;60000;1;A-Star
10;24;9;7;5;3;6;13;9;4;3;11;10;98;0;60000;1;A-Star
13;25;0;2;5;9;15;4;1;4;4;13;11;12242;0;60000;1;A-Star
12;26;11;5;3;6;9;10;15;13;2;11;9;181;0;60000;1;A-Star
18;27;15;13;8;6;5;4;12;5;2;12;9;2753;0;60000;1;A-Star
13;28;0;12;8;1;5;12;7;2;0;12;9;284;0;60000;1;A-Star
14;29;4;4;11;2;0;11;0;9;0;11;10;822;0;60000;1;A-Star
11;30;14;7;11;7;13;7;8;10;0;13;11;130;0;60000;1;A-Star
7;31;3;2;8;0;13;5;8;12;3;12;9;4;0;60000;1;A-Star
14;32;5;4;3;1;5;6;6;1;2;11;10;1987;0;60000;1;A-Star
9;33;13;15;9;10;9;4;9;7;3;10;10;16;0;60000;1;A-Star
11;34;15;0;0;2;12;8;10;4;4;14;14;1919;0;60000;1;A-Star
8;35;11;13;6;9;0;0;11;3;1;9;12;6;0;60000;1;A-Star
13;36;12;0;10;11;7;4;1;7;0;13;11;2562;0;60000;1;A-Star
6;37;14;0;13;14;10;3;0;14;3;9;11;8;0;60000;1;A-Star
12;38;8;1;14;8;6;12;7;14;3;9;12;293;0;60000;1;A-Star
13;39;3;14;2;15;5;7;12;14;0;8;10;261;0;60000;1;A-Star
19;40;3;1;11;14;3;15;15;3;3;10;14;3453;0;60000;1;A-Star
8;41;13;7;13;2;9;13;6;4;2;9;12;247;0;60000;1;A-Star
10;42;10;13;7;11;3;10;4;12;1;11;14;85;0;60000;1;A-Star
13;43;13;6;5;9;5;5;7;9;1;8;10;260;0;60000;1;A-Star
11;44;11;0;10;5;1;3;2;10;2;11;10;96;0;60000;1;A-Star
13;45;7;5;5;11;2;4;3;10;0;10;12;821;0;60000;1;A-Star
11;46;9;5;9;7;4;3;8;3;4;14;14;26015;0;60000;1;A-Star
4;47;12;8;7;15;13;8;11;0;4;9;13;6;0;60000;1;A-Star
13;48;14;14;2;14;11;8;10;2;1;8;10;611;0;60000;1;A-Star
15;49;6;14;12;1;2;8;5;4;1;13;11;2076;0;60000;1;A-Star
15;50;9;1;9;12;11;10;8;2;1;14;9;524;0;60000;1;A-Star
17;51;2;3;5;15;1;0;9;6;1;14;13;1029;0;60000;1;A-Star
5;52;0;5;0;14;14;9;5;5;4;13;11;21;0;60000;1;A-Star
8;53;8;15;14;9;11;3;2;1;4;8;10;904;0;60000;1;A-Star
11;54;10;4;1;14;4;4;3;7;0;14;9;142;0;60000;1;A-Star
6;55;3;12;8;1;5;12;11;1;1;12;14;3;0;60000;1;A-Star
14;56;15;0;0;8;13;11;4;11;0;11;10;156;0;60000;1;A-Star
18;57;5;15;8;5;7;6;8;9;1;13;9;14419;0;60000;1;A-Star
21;58;4;13;15;11;8;10;0;11;3;13;9;7489;0;60000;1;A-Star
8;59;1;6;6;6;5;2;11;8;0;12;9;30;0;60000;1;A-Star
14;60;12;11;2;8;6;14;5;13;0;13;9;1369;0;60000;1;A-Star
10;61;10;8;2;4;3;2;1;9;1;14;13;136;0;60000;1;A-Star
6;62;9;0;6;0;6;13;2;9;2;14;12;6;0;60000;1;A-Star
8;63;2;13;1;7;14;7;8;14;2;9;11;6;0;60000;1;A-Star
15;64;0;7;0;14;9;7;10;8;2;14;14;805;0;60000;1;A-Star
9;65;12;8;13;3;8;6;5;15;2;11;9;27;0;60000;1;A-Star
6;66;15;5;5;3;11;4;11;0;1;13;9;4;0;60000;1;A-Star
22;67;3;1;7;1;0;15;11;8;1;9;12;45645;0;60000;1;A-Star
16;68;8;5;5;14;4;13;7;14;0;10;10;5324;0;60000;1;A-Star
10;69;1;15;0;12;11;8;1;8;0;12;14;45;0;60000;1;A-Star
17;70;15;5;8;9;3;0;10;6;0;10;13;692;0;60000;1;A-Star
7;71;15;11;10;10;6;0;3;5;2;12;13;4;0;60000;1;A-Star
11;72;14;4;4;6;7;13;3;8;3;11;9;334;0;60000;1;A-Star
8;73;3;3;13;6;8;11;11;5;1;10;13;33;0;60000;1;A-Star
6;74;10;5;1;12;1;2;4;14;4;14;9;98;0;60000;1;A-Star
15;75;3;11;11;14;12;13;8;10;1;9;12;2653;0;60000;1;A-Star
10;76;10;5;6;14;2;9;10;3;1;10;12;45;0;60000;1;A-Star
6;77;14;12;8;5;0;13;8;12;3;12;9;3;0;60000;1;A-Star
5;78;2;5;2;15;7;0;12;7;4;10;10;32;0;60000;1;A-Star
6;79;3;5;3;3;2;1;13;9;4;9;11;74;0;60000;1;A-Star
8;80;1;12;9;12;3;5;15;6;4;11;10;680;0;60000;1;A-Star
17;81;0;7;15;5;12;1;1;3;3;14;14;2670;0;60000;1;A-Star
21;82;9;2;14;15;4;14;10;0;1;10;14;11914;0;60000;1;A-Star
18;83;14;8;4;1;1;12;4;5;2;10;14;13792;0;60000;1;A-Star
12;84;15;0;14;10;5;12;6;9;2;14;14;526;0;60000;1;A-Star
13;85;4;15;0;10;14;7;11;13;3;14;9;164;0;60000;1;A-Star
16;86;4;5;1;1;0;1;3;10;0;14;14;970;0;60000;1;A-Star
10;87;1;14;11;13;7;4;5;0;0;9;12;583;0;60000;1;A-Star
10;88;8;2;3;10;3;7;9;14;2;9;12;129;0;60000;1;A-Star
12;89;5;9;2;0;6;6;5;8;2;14;13;1079;0;60000;1;A-Star
6;90;13;0;5;10;12;15;3;4;2;14;13;2;0;60000;1;A-Star
8;91;11;8;2;0;1;11;3;14;4;14;13;278;0;60000;1;A-Star
13;92;10;2;4;1;5;12;13;4;1;11;10;405;0;60000;1;A-Star
16;93;7;15;5;8;9;8;3;4;3;14;14;1336;0;60000;1;A-Star
16;94;2;13;8;9;1;12;1;5;0;12;9;756;0;60000;1;A-Star
15;95;0;11;12;3;7;5;3;6;0;10;13;1275;0;60000;1;A-Star
14;96;6;5;14;13;0;12;8;0;1;10;10;150;0;60000;1;A-Star
4;97;2;10;10;3;14;4;11;3;4;13;11;13;0;60000;1;A-Star
6;98;14;12;10;9;11;5;3;10;0;9;10;3;0;60000;1;A-Star
11;99;4;9;15;7;0;4;0;0;3;12;9;22;0;60000;1;A-Star
12;0;15;3;9;1;12;0;14;9;1;14;13;161;0;60000;0;A-Star
11;1;12;15;7;6;10;11;0;6;1;14;13;100;0;60000;0;A-Star
8;2;5;8;12;1;11;2;3;7;4;14;9;38;0;60000;0;A-Star
7;3;5;5;15;4;0;15;6;9;2;13;9;5;0;60000;0;A-Star
6;4;11;0;2;14;11;10;1;1;1;9;13;1;0;60000;0;A-Star
7;5;5;9;7;2;13;13;11;10;3;8;10;4;0;60000;0;A-Star
11;6;9;8;9;2;7;14;2;11;3;12;9;450;0;60000;0;A-Star
10;7;1;9;6;15;12;4;1;3;2;10;13;18;0;60000;0;A-Star
10;8;10;1;1;13;1;2;4;10;2;9;12;72;0;60000;0;A-Star
9;9;8;14;3;7;8;9;12;7;1;14;11;48;0;60000;0;A-Star
11;10;2;11;10;4;9;1;3;1;3;9;14;307;0;60000;0;A-Star
7;11;10;9;10;5;11;14;8;1;1;10;13;2;0;60000;0;A-Star
7;12;7;2;12;15;2;8;11;14;3;9;11;8;0;60000;0;A-Star
10;13;0;5;2;11;15;9;13;1;3;11;9;24;0;60000;0;A-Star
6;14;2;11;11;5;9;10;13;10;1;12;13;1;0;60000;0;A-Star
9;15;14;11;14;2;7;10;12;12;1;14;9;74;0;60000;0;A-Star
10;16;5;5;15;9;6;1;9;14;2;11;14;37;0;60000;0;A-Star
13;17;1;13;7;15;6;15;13;10;0;9;13;160;0;60000;0;A-Star
11;18;0;4;5;6;4;1;5;4;0;12;9;134;0;60000;0;A-Star
8;19;14;9;3;15;5;14;6;15;3;11;10;33;0;60000;0;A-Star
9;20;0;7;4;0;5;6;15;11;2;14;13;8;0;60000;0;A-Star
12;21;13;4;14;7;12;10;3;14;3;13;11;357;0;60000;0;A-Star
11;22;12;1;2;9;4;10;2;11;2;13;11;824;0;60000;0;A-Star
4;23;7;11;10;5;3;14;4;9;4;11;10;0;0;60000;0;A-Star
9;24;9;7;5;3;6;13;9;4;3;11;10;20;0;60000;0;A-Star
12;25;0;2;5;9;15;4;1;4;4;13;11;265;0;60000;0;A-Star
8;26;11;5;3;6;9;10;15;13;2;11;9;16;0;60000;0;A-Star
11;27;15;13;8;6;5;4;12;5;2;12;9;178;0;60000;0;A-Star
9;28;0;12;8;1;5;12;7;2;0;12;9;113;0;60000;0;A-Star
12;29;4;4;11;2;0;11;0;9;0;11;10;138;0;60000;0;A-Star
5;30;14;7;11;7;13;7;8;10;0;13;11;0;0;60000;0;A-Star
4;31;3;2;8;0;13;5;8;12;3;12;9;1;0;60000;0;A-Star
12;32;5;4;3;1;5;6;6;1;2;11;10;473;0;60000;0;A-Star
6;33;13;15;9;10;9;4;9;7;3;10;10;2;0;60000;0;A-Star
10;34;15;0;0;2;12;8;10;4;4;14;14;63;0;60000;0;A-Star
6;35;11;13;6;9;0;0;11;3;1;9;12;1;0;60000;0;A-Star
10;36;12;0;10;11;7;4;1;7;0;13;11;169;0;60000;0;A-Star
6;37;14;0;13;14;10;3;0;14;3;9;11;1;0;60000;0;A-Star
9;38;8;1;14;8;6;12;7;14;3;9;12;49;0;60000;0;A-Star
7;39;3;14;2;15;5;7;12;14;0;8;10;2;0;60000;0;A-Star
14;40;3;1;11;14;3;15;15;3;3;10;14;570;0;60000;0;A-Star
5;41;13;7;13;2;9;13;6;4;2;9;12;5;0;60000;0;A-Star
6;42;10;13;7;11;3;10;4;12;1;11;14;3;0;60000;0;A-Star
8;43;13;6;5;9;5;5;7;9;1;8;10;7;0;60000;0;A-Star
8;44;11;0;10;5;1;3;2;10;2;11;10;28;0;60000;0;A-Star
9;45;7;5;5;11;2;4;3;10;0;10;12;41;0;60000;0;A-Star
10;46;9;5;9;7;4;3;8;3;4;14;14;1463;0;60000;0;A-Star
4;47;12;8;7;15;13;8;11;0;4;9;13;1;0;60000;0;A-Star
9;48;14;14;2;14;11;8;10;2;1;8;10;39;0;60000;0;A-Star
10;49;6;14;12;1;2;8;5;4;1;13;11;116;0;60000;0;A-Star
9;50;9;1;9;12;11;10;8;2;1;14;9;22;0;60000;0;A-Star
13;51;2;3;5;15;1;0;9;6;1;14;13;530;0;60000;0;A-Star
4;52;0;5;0;14;14;9;5;5;4;13;11;3;0;60000;0;A-Star
8;53;8;15;14;9;11;3;2;1;4;8;10;106;0;60000;0;A-Star
9;54;10;4;1;14;4;4;3;7;0;14;9;42;0;60000;0;A-Star
5;55;3;12;8;1;5;12;11;1;1;12;14;2;0;60000;0;A-Star
9;56;15;0;0;8;13;11;4;11;0;11;10;6;0;60000;0;A-Star
14;57;5;15;8;5;7;6;8;9;1;13;9;3390;0;60000;0;A-Star
11;58;4;13;15;11;8;10;0;11;3;13;9;338;0;60000;0;A-Star
8;59;1;6;6;6;5;2;11;8;0;12;9;17;0;60000;0;A-Star
11;60;12;11;2;8;6;14;5;13;0;13;9;207;0;60000;0;A-Star
9;61;10;8;2;4;3;2;1;9;1;14;13;22;0;60000;0;A-Star
6;62;9;0;6;0;6;13;2;9;2;14;12;1;0;60000;0;A-Star
5;63;2;13;1;7;14;7;8;14;2;9;11;3;0;60000;0;A-Star
13;64;0;7;0;14;9;7;10;8;2;14;14;512;0;60000;0;A-Star
8;65;12;8;13;3;8;6;5;15;2;11;9;13;0;60000;0;A-Star
7;66;15;5;5;3;11;4;11;0;1;13;9;3;0;60000;0;A-Star
15;67;3;1;7;1;0;15;11;8;1;9;12;6446;0;60000;0;A-Star
12;68;8;5;5;14;4;13;7;14;0;10;10;820;0;60000;0;A-Star
9;69;1;15;0;12;11;8;1;8;0;12;14;29;0;60000;0;A-Star
9;70;15;5;8;9;3;0;10;6;0;10;13;25;0;60000;0;A-Star
6;71;15;11;10;10;6;0;3;5;2;12;13;2;0;60000;0;A-Star
9;72;14;4;4;6;7;13;3;8;3;11;9;34;0;60000;0;A-Star
7;73;3;3;13;6;8;11;11;5;1;10;13;5;0;60000;0;A-Star
8;74;10;5;1;12;1;2;4;14;4;14;9;36;0;60000;0;A-Star
10;75;3;11;11;14;12;13;8;10;1;9;12;452;0;60000;0;A-Star
8;76;10;5;6;14;2;9;10;3;1;10;12;23;0;60000;0;A-Star
4;77;14;12;8;5;0;13;8;12;3;12;9;0;0;60000;0;A-Star
4;78;2;5;2;15;7;0;12;7;4;10;10;1;0;60000;0;A-Star
5;79;3;5;3;3;2;1;13;9;4;9;11;2;0;60000;0;A-Star
7;80;1;12;9;12;3;5;15;6;4;11;10;14;0;60000;0;A-Star
13;81;0;7;15;5;12;1;1;3;3;14;14;975;0;60000;0;A-Star
14;82;9;2;14;15;4;14;10;0;1;10;14;489;0;60000;0;A-Star
13;83;14;8;4;1;1;12;4;5;2;10;14;2197;0;60000;0;A-Star
11;84;15;0;14;10;5;12;6;9;2;14;14;43;0;60000;0;A-Star
7;85;4;15;0;10;14;7;11;13;3;14;9;24;0;60000;0;A-Star
12;86;4;5;1;1;0;1;3;10;0;14;14;399;0;60000;0;A-Star
9;87;1;14;11;13;7;4;5;0;0;9;12;29;0;60000;0;A-Star
9;88;8;2;3;10;3;7;9;14;2;9;12;67;0;60000;0;A-Star
11;89;5;9;2;0;6;6;5;8;2;14;13;102;0;60000;0;A-Star
7;90;13;0;5;10;12;15;3;4;2;14;13;2;0;60000;0;A-Star
7;91;11;8;2;0;1;11;3;14;4;14;13;5;0;60000;0;A-Star
9;92;10;2;4;1;5;12;13;4;1;11;10;32;0;60000;0;A-Star
12;93;7;15;5;8;9;8;3;4;3;14;14;632;0;60000;0;A-Star
10;94;2;13;8;9;1;12;1;5;0;12;9;50;0;60000;0;A-Star
11;95;0;11;12;3;7;5;3;6;0;10;13;566;0;60000;0;A-Star
7;96;6;5;14;13;0;12;8;0;1;10;10;5;0;60000;0;A-Star
5;97;2;10;10;3;14;4;11;3;4;13;11;2;0;60000;0;A-Star
7;98;14;12;10;9;11;5;3;10;0;9;10;3;0;60000;0;A-Star
7;99;4;9;15;7;0;4;0;0;3;12;9;3;0;60000;0;A-Star
